10-2-19 Tidy verse
…
DATA PREVIEWING

lets view the data

First I Want to see which cities have a lot of reviews

count(pizza_barstool, city)

## # A tibble: 99 x 2
##    city           n
##    <chr>      <int>
##  1 Alpharetta     1
##  2 Ann Arbor      4
##  3 Atlanta        6
##  4 Augusta        1
##  5 Austin         1
##  6 Austintown     1
##  7 Blacksburg     1
##  8 Boston        13
##  9 Braintree      1
## 10 Brockton       1
## # … with 89 more rows

This gives us ten pages of data. Some cities only one have one review, so lets eliminate those.

pizza_jared %>%
  count(place, sort = TRUE)

## # A tibble: 56 x 2
##    place                   n
##    <chr>               <int>
##  1 Fiore's                25
##  2 Prince Street Pizza    20
##  3 NY Pizza Suprema       15
##  4 Joe's 14th             10
##  5 Joe's Pizza 14th       10
##  6 Little Italy Pizza     10
##  7 Pizza Mercato          10
##  8 Pizza Paradise         10
##  9 Pomodoro               10
## 10 Rocco's Pizza Joint    10
## # … with 46 more rows
…
