Tidy Tuesday 1
…
#somewhere in this script, we need to filter out the pizza shops without long/lat data (there are 2)
#we may want to use a unique() function to filter out multiples of the same pizza shop - do this by address, perhaps, and not by name, in case there are shops with the same name 

pizza_cleaned = pizza_barstool %>%
  filter(!is.na(long)) 

Exploratoring the Data

Chains

Question: Are there shops here with the same name?

distinct(pizza_barstool, name)

## # A tibble: 452 x 1
##    name                      
##    <chr>                     
##  1 Pugsley's Pizza           
##  2 Williamsburg Pizza        
##  3 99 Cent Fresh Pizza       
##  4 Nino's 46                 
##  5 La Pizza Fresca Ristorante
##  6 La Gusto Pizza            
##  7 Cheesy Pizza              
##  8 Sal & Carmine's Pizza     
##  9 MAMA'S TOO!               
## 10 Bond 45                   
## # … with 442 more rows
…
There are 452 pizza shows with unique names. This means there are 11 shops that have duplicated a name from another shop. What names have been re-used? Are these duplicates or chains?

Locations

Now, let’s look and see where these pizza shops are located.

#Write some code here that plots the data by the number of pizza shops per city.
pizza_shops_city = pizza_barstool %>% 
  group_by(city) %>%
  summarize(num_per_city = n()) %>%
  arrange(desc(num_per_city))

pizza_shops_city

## # A tibble: 99 x 2
##    city        num_per_city
##    <chr>              <int>
##  1 New York             251
##  2 Brooklyn              20
##  3 Boston                13
##  4 Las Vegas             11
##  5 Minneapolis            8
##  6 Atlanta                6
##  7 Chicago                6
##  8 Columbus               6
##  9 Hoboken                6
## 10 Nantucket              6
## # … with 89 more rows

Top Ten Density: The cities with the most number of pizza shops included in this study were: New York, Brooklyn, Boston, Las Vegas, Minneapolis, Atlanta, Chicago, Columbus, Hoboken, and Nantucket.

John’s on 44th

As a NY Native, Joe says that John’s on 44th has the best pizza. Looking through the shops in NYC, he must be referring to John’s of Times Square. How does this compare to the average pizza ratings in NYC?

pizza_barstool %>% 
  filter(city == "New York") %>%
  arrange(name)

## # A tibble: 251 x 22
##    name  address1 city    zip country   lat  long price_level
##    <chr> <chr>    <chr> <dbl> <chr>   <dbl> <dbl>       <dbl>
##  1 10th… 256 10t… New … 10001 US       40.7 -74.0           1
##  2 3 Gi… 548 Lag… New … 10012 US       40.7 -74.0           2
##  3 310 … 310 Bow… New … 10012 US       40.7 -74.0           2
##  4 42nd… 647 W 4… New … 10036 US       40.8 -74.0           2
##  5 5 Bo… 386 Can… New … 10013 US       40.7 -74.0           1
##  6 99 C… 473 Lex… New … 10017 US       40.8 -74.0           1
##  7 A Sl… 727 8th… New … 10036 US       40.8 -74.0           2
##  8 Ador… 287 Hud… New … 10013 US       40.7 -74.0           2
##  9 Adri… 54 Ston… New … 10004 US       40.7 -74.0           2
## 10 Alph… 525 Gra… New … 10002 US       40.7 -74.0           1
## # … with 241 more rows, and 14 more variables: provider_rating <dbl>,
## #   provider_review_count <dbl>, review_stats_all_average_score <dbl>,
## #   review_stats_all_count <dbl>, review_stats_all_total_score <dbl>,
## #   review_stats_community_average_score <dbl>,
## #   review_stats_community_count <dbl>,
## #   review_stats_community_total_score <dbl>,
## #   review_stats_critic_average_score <dbl>,
## #   review_stats_critic_count <dbl>,
## #   review_stats_critic_total_score <dbl>,
…
