Tidy Tuesday 1 Exercise-WilliamNorfolk
…
Way too many zips to deal with alone, lets simplify the dataset.

New York is known for its pizza, so we will focus on all the zip codes with a city observation of New York. It looks like all of the city = Ney York observations represent lacations in Manhattan. We will focus on Manhattan for our exercise. Then we take a look at all of the unique zip codes in the subset.

nypizzaplaces_barstool <- filter(pizza_barstool, city == "New York")

nypizzaplaces_barstool

## # A tibble: 251 x 22
##    name  address1 city    zip country latitude longitude price_level
##    <chr> <chr>    <chr> <dbl> <chr>      <dbl>     <dbl>       <dbl>
##  1 99 C… 473 Lex… New … 10017 US          40.8     -74.0           1
##  2 Nino… 39 W 46… New … 10036 US          40.8     -74.0           2
##  3 La P… 31 E 20… New … 10003 US          40.7     -74.0           2
##  4 La G… 382 8th… New … 10001 US          NA        NA             1
##  5 Chee… 2640 Br… New … 10025 US          40.8     -74.0           1
##  6 Sal … 2671 Br… New … 10025 US          40.8     -74.0           1
##  7 MAMA… 2750 Br… New … 10025 US          40.8     -74.0           2
##  8 Bond… 221 W 4… New … 10036 US          40.8     -74.0           2
##  9 Pats… 2287 1s… New … 10035 US          40.8     -73.9           2
## 10 LA T… 101 W 6… New … 10023 US          40.8     -74.0           1
## # … with 241 more rows, and 14 more variables: provider_rating <dbl>,
## #   provider_review_count <dbl>, review_stats_all_average_score <dbl>,
## #   review_stats_all_count <dbl>, review_stats_all_total_score <dbl>,
## #   review_stats_community_average_score <dbl>,
## #   review_stats_community_count <dbl>,
## #   review_stats_community_total_score <dbl>,
## #   review_stats_critic_average_score <dbl>,
## #   review_stats_critic_count <dbl>,
## #   review_stats_critic_total_score <dbl>,
…
